%YAML 1.1
%TAG !u! tag:unity3d.com,2011:
--- !u!1045 &1
EditorBuildSettings:
  m_ObjectHideFlags: 0
  serializedVersion: 2
  m_Scenes: []
  m_configObjects:
    com.unity.xr.management.loader_settings: {fileID: 11400000, guid: 154e2b7a4fb7d0e4ebc91fb870808d57, type: 2}
    com.unity.xr.openxr.settings4: {fileID: 11400000, guid: afd9495e77d95fa4b9f196cc4e30999c, type: 2}
